Trabajo de Investigación - 2 Estudio de los datasets
…
Descripcion y valores que alcanzan

La mayoría de filas de las columas del dataset ocupan valores binarios(0 para indicar que la condición es falsa y 1 para indicar que la condición es verdadera).

Las columnas que no tienen esa estructura son:follows,followers,posts,nums/length fullname,nums/length username y fullname words.

Para centralizar un poco más nuestro estudio vamos a ver que porcentaje de las cuentas registradas son falsas y como hemos mencionado anteriormente seleccionar las columnas que consideramos más relaventes.

Creamos un dataset llamado “falsas” donde guardamos todas lascuentas falsas para analizar posteriormente sus características,además centraremos el estudio en él.

falsas <- test %>% filter (fake == 1) %>% select(c(`profile pic`,`fullname words`,`name==username`,`description length`,`external URL`,`#posts`,`private`,`#follows`,`#followers`))
falsas

# A tibble: 60 × 9
   `profile pic` `fullname words` `name==username` `description length`
           <dbl>            <dbl>            <dbl>                <dbl>
 1             0                1                0                    0
 2             1                1                0                    0
 3             0                1                0                    0
 4             0                1                1                    0
 5             0                2                0                    0
 6             0                0                0                    0
 7             0                3                0                    0
 8             0                1                1                    0
 9             0                1                0                    0
10             0                1                0                    0
# ℹ 50 more rows
# ℹ 5 more variables: `external URL` <dbl>, `#posts` <dbl>, private <dbl>,
#   `#follows` <dbl>, `#followers` <dbl>
…
unique(falsas$`#followers`)

 [1]    0   45   19   69   22   31    9   23   17   46   16   21   52   24   13
[16]  227   10   57  341 1789  309 1742 1906   39   62  119 2997  772  129   94
[31]   37   75   42  145  128   88 1987  100  214  192  415  926  238  193   49
[46]   74  114  150  833  219

Creamos una nueva columna en falsas donde hagamos el ratio entre los seguidos y los seguidores

falsas <- falsas %>%
  mutate(ratio = ifelse(is.infinite(`#follows`/`#followers`),0,`#follows`/`#followers`))
falsas

# A tibble: 60 × 10
   `profile pic` `fullname words` `name==username` `description length`
           <dbl>            <dbl>            <dbl>                <dbl>
 1             0                1                0                    0
 2             1                1                0                    0
 3             0                1                0                    0
 4             0                1                1                    0
 5             0                2                0                    0
 6             0                0                0                    0
 7             0                3                0                    0
 8             0                1                1                    0
 9             0                1                0                    0
10             0                1                0                    0
# ℹ 50 more rows
# ℹ 6 more variables: `external URL` <dbl>, `#posts` <dbl>, private <dbl>,
#   `#follows` <dbl>, `#followers` <dbl>, ratio <dbl>
…
   Min. 1st Qu.  Median    Mean 3rd Qu.    Max. 
   0.00   29.25   71.50  296.40  215.25 2997.00 

reglas$`#followers`<- cut(reglas$`#followers`, breaks = c(-1, 70, 230, 3000), labels = c("A bit", "Medium", "To much"))

Me parece más visual para realizar el analisis de las reglas que el dataset este compuesto en su totalidad de palabras así que voy a sustituir los 0 por no y los 1 por sí.

En la longitud de la descripción hemos hecho una excepción porque me interesa saber más si tiene o no tiene descripción.

reglas$`profile pic` <- ifelse(reglas$`profile pic` == 0, "No", "Sí")
reglas$`name==username` <- ifelse(reglas$`name==username` == 0, "No", "Sí")
reglas$`description length`<- ifelse(reglas$`description length` == 0, "No", "Sí")
reglas

# A tibble: 60 × 7
   `profile pic` `fullname words` `name==username` `description length` `#posts`
   <chr>         <fct>            <chr>            <chr>                <fct>   
 1 No            Short            No               No                   One or …
 2 Sí            Short            No               No                   One or …
 3 No            Short            No               No                   One or …
 4 No            Short            Sí               No                   One or …
 5 No            A few            No               No                   One or …
 6 No            Short            No               No                   One or …
 7 No            To much          No               No                   One or …
 8 No            Short            Sí               No                   One or …
 9 No            Short            No               No                   One or …
10 No            Short            No               No                   One or …
# ℹ 50 more rows
# ℹ 2 more variables: `#follows` <fct>, `#followers` <fct>
…
